tech/relativelyobjective/csvcombinationtool/MenuBar.class
tech/relativelyobjective/csvcombinationtool/CSVFile$Row.class
tech/relativelyobjective/csvcombinationtool/PrimaryWindow.class
tech/relativelyobjective/csvcombinationtool/FileLoading.class
tech/relativelyobjective/csvcombinationtool/FileSaving.class
tech/relativelyobjective/csvcombinationtool/CSVCombinationTool.class
tech/relativelyobjective/csvcombinationtool/CSVFile.class
