/Users/reltivlyobjectv/NetBeansProjects/CSVCombinationToolMaven/src/main/java/tech/relativelyobjective/csvcombinationtool/PrimaryWindow.java
/Users/reltivlyobjectv/NetBeansProjects/CSVCombinationToolMaven/src/main/java/tech/relativelyobjective/csvcombinationtool/FileSaving.java
/Users/reltivlyobjectv/NetBeansProjects/CSVCombinationToolMaven/src/main/java/tech/relativelyobjective/csvcombinationtool/CSVCombinationTool.java
/Users/reltivlyobjectv/NetBeansProjects/CSVCombinationToolMaven/src/main/java/tech/relativelyobjective/csvcombinationtool/MenuBar.java
/Users/reltivlyobjectv/NetBeansProjects/CSVCombinationToolMaven/src/main/java/tech/relativelyobjective/csvcombinationtool/FileLoading.java
/Users/reltivlyobjectv/NetBeansProjects/CSVCombinationToolMaven/src/main/java/tech/relativelyobjective/csvcombinationtool/CSVFile.java
